<?xml version="1.0" encoding="UTF-8"?>
<?PowerDesigner AppLocale="UTF16" ID="{C1B06895-7004-4CEC-AD29-863A71B02D15}" Label="" LastModificationDate="1457610446" Name="Sledzenie wiezniow" Objects="14" Symbols="0" Type="{FF4B6538-9856-42CF-B9B9-304ED370CEAA}" signature="PRJ_MODEL_XML" version="16.1.0.3881"?>
<!-- do not edit this file -->

<Model xmlns:a="attribute" xmlns:c="collection" xmlns:o="object">

<o:RootObject Id="o1">
<c:Children>
<o:Project Id="o2">
<a:ObjectID>C1B06895-7004-4CEC-AD29-863A71B02D15</a:ObjectID>
<a:Name>Sledzenie wiezniow</a:Name>
<a:Code>Sledzenie wiezniow</a:Code>
<a:CreationDate>1457610446</a:CreationDate>
<a:Creator>Studwcy</a:Creator>
<a:ModificationDate>1457610446</a:ModificationDate>
<a:Modifier>Studwcy</a:Modifier>
<a:ModelOptionsText>[ModelOptions]

[ModelOptions\Prj options]
CaseSensitive=No
DisplayName=Yes
EnableTrans=No
UseTerm=No
EnableRequirements=No
EnableFullShortcut=Yes

[ModelOptions\Prj options\NamingOptionsTemplates]

[ModelOptions\Prj options\ClssNamingOptions]

[ModelOptions\Prj options\ClssNamingOptions\PRJPCKG]

[ModelOptions\Prj options\ClssNamingOptions\PRJPCKG\Name]
Template=
MaxLen=254
Case=M
ValidChar=
InvldChar=
AllValid=Yes
NoAccent=No
DefaultChar=
Script=
ConvTable=
ConvTablePath=%_HOME%\Resource Files\Conversion Tables

[ModelOptions\Prj options\ClssNamingOptions\PRJPCKG\Code]
Template=
MaxLen=254
Case=M
ValidChar=
InvldChar=
AllValid=Yes
NoAccent=No
DefaultChar=
Script=
ConvTable=
ConvTablePath=%_HOME%\Resource Files\Conversion Tables

[ModelOptions\Prj options\ClssNamingOptions\FILO]

[ModelOptions\Prj options\ClssNamingOptions\FILO\Name]
Template=
MaxLen=254
Case=M
ValidChar=
InvldChar=
AllValid=Yes
NoAccent=No
DefaultChar=
Script=
ConvTable=
ConvTablePath=%_HOME%\Resource Files\Conversion Tables

[ModelOptions\Prj options\ClssNamingOptions\FILO\Code]
Template=
MaxLen=254
Case=M
ValidChar=
InvldChar=
AllValid=Yes
NoAccent=No
DefaultChar=
Script=
ConvTable=
ConvTablePath=%_HOME%\Resource Files\Conversion Tables

[ModelOptions\Prj options\ClssNamingOptions\FRMEOBJ]

[ModelOptions\Prj options\ClssNamingOptions\FRMEOBJ\Name]
Template=
MaxLen=254
Case=M
ValidChar=
InvldChar=
AllValid=Yes
NoAccent=No
DefaultChar=
Script=
ConvTable=
ConvTablePath=%_HOME%\Resource Files\Conversion Tables

[ModelOptions\Prj options\ClssNamingOptions\FRMEOBJ\Code]
Template=
MaxLen=254
Case=M
ValidChar=
InvldChar=
AllValid=Yes
NoAccent=No
DefaultChar=
Script=
ConvTable=
ConvTablePath=%_HOME%\Resource Files\Conversion Tables

[ModelOptions\Prj options\ClssNamingOptions\FRMELNK]

[ModelOptions\Prj options\ClssNamingOptions\FRMELNK\Name]
Template=
MaxLen=254
Case=M
ValidChar=
InvldChar=
AllValid=Yes
NoAccent=No
DefaultChar=
Script=
ConvTable=
ConvTablePath=%_HOME%\Resource Files\Conversion Tables

[ModelOptions\Prj options\ClssNamingOptions\FRMELNK\Code]
Template=
MaxLen=254
Case=M
ValidChar=
InvldChar=
AllValid=Yes
NoAccent=No
DefaultChar=
Script=
ConvTable=
ConvTablePath=%_HOME%\Resource Files\Conversion Tables

[ModelOptions\Prj options\ClssNamingOptions\DefaultClass]

[ModelOptions\Prj options\ClssNamingOptions\DefaultClass\Name]
Template=
MaxLen=254
Case=M
ValidChar=
InvldChar=
AllValid=Yes
NoAccent=No
DefaultChar=
Script=
ConvTable=
ConvTablePath=%_HOME%\Resource Files\Conversion Tables

[ModelOptions\Prj options\ClssNamingOptions\DefaultClass\Code]
Template=
MaxLen=254
Case=M
ValidChar=
InvldChar=
AllValid=Yes
NoAccent=No
DefaultChar=
Script=
ConvTable=
ConvTablePath=%_HOME%\Resource Files\Conversion Tables</a:ModelOptionsText>
<a:Project.Template>1</a:Project.Template>
<c:ProjectDiagrams>
<o:ProjectDiagram Id="o3">
<a:ObjectID>56064573-F4A4-4B1E-AF53-D15FCF450CD1</a:ObjectID>
<a:Name>Diagram_1</a:Name>
<a:Code>Diagram_1</a:Code>
<a:CreationDate>1457610446</a:CreationDate>
<a:Creator>Studwcy</a:Creator>
<a:ModificationDate>1457610446</a:ModificationDate>
<a:Modifier>Studwcy</a:Modifier>
<a:DisplayPreferences>[DisplayPreferences]

[DisplayPreferences\PRJ]

[DisplayPreferences\General]
Adjust to text=Yes
Snap Grid=No
Constrain Labels=Yes
Display Grid=No
Show Page Delimiter=Yes
Show Links intersections=Yes
Activate automatic link routing=Yes
Grid size=0
Graphic unit=2
Window color=255, 255, 255
Background image=
Background mode=8
Watermark image=
Watermark mode=8
Show watermark on screen=No
Gradient mode=0
Gradient end color=255, 255, 255
Show Swimlane=No
SwimlaneVert=Yes
TreeVert=No
CompDark=0

[DisplayPreferences\Object]
Show Icon=No
Mode=2
Trunc Length=40
Word Length=40
Word Text=!&quot;#$%&amp;&#39;)*+,-./:;=&gt;?@\]^_`|}~
Shortcut IntIcon=Yes
Shortcut IntLoct=Yes
Shortcut IntFullPath=No
Shortcut IntLastPackage=Yes
Shortcut ExtIcon=Yes
Shortcut ExtLoct=No
Shortcut ExtFullPath=No
Shortcut ExtLastPackage=Yes
Shortcut ExtIncludeModl=Yes
EObjShowStrn=Yes
ExtendedObject.Comment=No
ExtendedObject.IconPicture=No
ExtendedObject.TextStyle=No
ExtendedObject_SymbolLayout=&lt;Form&gt;[CRLF] &lt;StandardAttribute Name=&quot;Stereotype&quot; Attribute=&quot;Stereotype&quot; Prefix=&quot;&amp;lt;&amp;lt;&quot; Suffix=&quot;&amp;gt;&amp;gt;&quot; Alignment=&quot;CNTR&quot; Caption=&quot;&quot; Mandatory=&quot;No&quot; /&gt;[CRLF] &lt;StandardAttribute Name=&quot;Object Name&quot; Attribute=&quot;DisplayName&quot; Prefix=&quot;&quot; Suffix=&quot;&quot; Alignment=&quot;CNTR&quot; Caption=&quot;&quot; Mandatory=&quot;Yes&quot; /&gt;[CRLF] &lt;Separator Name=&quot;Separator&quot; /&gt;[CRLF] &lt;StandardAttribute Name=&quot;Comment&quot; Attribute=&quot;Comment&quot; Prefix=&quot;&quot; Suffix=&quot;&quot; Alignment=&quot;LEFT&quot; Caption=&quot;&quot; Mandatory=&quot;No&quot; /&gt;[CRLF] &lt;StandardAttribute Name=&quot;Icon&quot; Attribute=&quot;IconPicture&quot; Prefix=&quot;&quot; Suffix=&quot;&quot; Alignment=&quot;CNTR&quot; Caption=&quot;&quot; Mandatory=&quot;Yes&quot; /&gt;[CRLF] &lt;StandardAttribute Name=&quot;Force top align&quot; Attribute=&quot;TextStyle&quot; Prefix=&quot;&quot; Suffix=&quot;&quot; Alignment=&quot;CNTR&quot; Caption=&quot;&quot; Mandatory=&quot;Yes&quot; /&gt;[CRLF]&lt;/Form&gt;
ELnkShowStrn=Yes
ELnkShowName=Yes
ExtendedLink_SymbolLayout=&lt;Form&gt;[CRLF] &lt;Form Name=&quot;Center&quot; &gt;[CRLF]  &lt;StandardAttribute Name=&quot;Stereotype&quot; Attribute=&quot;Stereotype&quot; Prefix=&quot;&amp;lt;&amp;lt;&quot; Suffix=&quot;&amp;gt;&amp;gt;&quot; Caption=&quot;&quot; Mandatory=&quot;No&quot; /&gt;[CRLF]  &lt;StandardAttribute Name=&quot;Name&quot; Attribute=&quot;DisplayName&quot; Prefix=&quot;&quot; Suffix=&quot;&quot; Caption=&quot;&quot; Mandatory=&quot;No&quot; /&gt;[CRLF] &lt;/Form&gt;[CRLF] &lt;Form Name=&quot;Source&quot; &gt;[CRLF] &lt;/Form&gt;[CRLF] &lt;Form Name=&quot;Destination&quot; &gt;[CRLF] &lt;/Form&gt;[CRLF]&lt;/Form&gt;
FileObject.Stereotype=No
FileObject.DisplayName=Yes
FileObject.LocationOrName=No
FileObject.IconPicture=No
FileObject.TextStyle=No
FileObject.IconMode=Yes
FileObject_SymbolLayout=&lt;Form&gt;[CRLF] &lt;StandardAttribute Name=&quot;Stereotype&quot; Attribute=&quot;Stereotype&quot; Prefix=&quot;&amp;lt;&amp;lt;&quot; Suffix=&quot;&amp;gt;&amp;gt;&quot; Alignment=&quot;CNTR&quot; Caption=&quot;&quot; Mandatory=&quot;No&quot; /&gt;[CRLF] &lt;ExclusiveChoice Name=&quot;Exclusive Choice&quot; Mandatory=&quot;Yes&quot; Display=&quot;HorizontalRadios&quot; &gt;[CRLF]  &lt;StandardAttribute Name=&quot;Name&quot; Attribute=&quot;DisplayName&quot; Prefix=&quot;&quot; Suffix=&quot;&quot; Alignment=&quot;CNTR&quot; Caption=&quot;&quot; Mandatory=&quot;No&quot; /&gt;[CRLF]  &lt;StandardAttribute Name=&quot;Location&quot; Attribute=&quot;LocationOrName&quot; Prefix=&quot;&quot; Suffix=&quot;&quot; Alignment=&quot;CNTR&quot; Caption=&quot;&quot; Mandatory=&quot;No&quot; /&gt;[CRLF] &lt;/ExclusiveChoice&gt;[CRLF] &lt;StandardAttribute Name=&quot;Icon&quot; Attribute=&quot;IconPicture&quot; Prefix=&quot;&quot; Suffix=&quot;&quot; Alignment=&quot;CNTR&quot; Caption=&quot;&quot; Mandatory=&quot;Yes&quot; /&gt;[CRLF] &lt;StandardAttribute Name=&quot;Force top align&quot; Attribute=&quot;TextStyle&quot; Prefix=&quot;&quot; Suffix=&quot;&quot; Alignment=&quot;CNTR&quot; Caption=&quot;&quot; Mandatory=&quot;Yes&quot; /&gt;[CRLF]&lt;/Form&gt;
ProjectFolder.Stereotype=Yes
ProjectFolder.Comment=No
ProjectFolder.IconPicture=No
ProjectFolder.TextStyle=No
ProjectFolder_SymbolLayout=&lt;Form&gt;[CRLF] &lt;StandardAttribute Name=&quot;Stereotype&quot; Attribute=&quot;Stereotype&quot; Prefix=&quot;&amp;lt;&amp;lt;&quot; Suffix=&quot;&amp;gt;&amp;gt;&quot; Alignment=&quot;CNTR&quot; Caption=&quot;&quot; Mandatory=&quot;No&quot; /&gt;[CRLF] &lt;StandardAttribute Name=&quot;Name&quot; Attribute=&quot;DisplayName&quot; Prefix=&quot;&quot; Suffix=&quot;&quot; Alignment=&quot;CNTR&quot; Caption=&quot;&quot; Mandatory=&quot;Yes&quot; /&gt;[CRLF] &lt;Separator Name=&quot;Separator&quot; /&gt;[CRLF] &lt;StandardAttribute Name=&quot;Comment&quot; Attribute=&quot;Comment&quot; Prefix=&quot;&quot; Suffix=&quot;&quot; Alignment=&quot;LEFT&quot; Caption=&quot;&quot; Mandatory=&quot;No&quot; /&gt;[CRLF] &lt;StandardAttribute Name=&quot;Icon&quot; Attribute=&quot;IconPicture&quot; Prefix=&quot;&quot; Suffix=&quot;&quot; Alignment=&quot;CNTR&quot; Caption=&quot;&quot; Mandatory=&quot;Yes&quot; /&gt;[CRLF] &lt;StandardAttribute Name=&quot;Force top align&quot; Attribute=&quot;TextStyle&quot; Prefix=&quot;&quot; Suffix=&quot;&quot; Alignment=&quot;CNTR&quot; Caption=&quot;&quot; Mandatory=&quot;Yes&quot; /&gt;[CRLF]&lt;/Form&gt;
Display Model Version=Yes
ModelDocument.IconPicture=Yes
ModelDocument.Stereotype=Yes
ModelDocument.Comment=No
ModelDocument.TextStyle=No
ModelDocument.IconMode=Yes
ModelDocument_SymbolLayout=&lt;Form&gt;[CRLF] &lt;StandardAttribute Name=&quot;Icon&quot; Attribute=&quot;IconPicture&quot; Prefix=&quot;&quot; Suffix=&quot;&quot; Alignment=&quot;CNTR&quot; Caption=&quot;&quot; Mandatory=&quot;Yes&quot; /&gt;[CRLF] &lt;StandardAttribute Name=&quot;Stereotype&quot; Attribute=&quot;Stereotype&quot; Prefix=&quot;&amp;lt;&amp;lt;&quot; Suffix=&quot;&amp;gt;&amp;gt;&quot; Alignment=&quot;CNTR&quot; Caption=&quot;&quot; Mandatory=&quot;No&quot; /&gt;[CRLF] &lt;StandardAttribute Name=&quot;Name&quot; Attribute=&quot;DisplayName&quot; Prefix=&quot;&quot; Suffix=&quot;&quot; Alignment=&quot;CNTR&quot; Caption=&quot;&quot; Mandatory=&quot;Yes&quot; /&gt;[CRLF] &lt;Separator Name=&quot;Separator&quot; /&gt;[CRLF] &lt;StandardAttribute Name=&quot;Comment&quot; Attribute=&quot;Comment&quot; Prefix=&quot;&quot; Suffix=&quot;&quot; Alignment=&quot;LEFT&quot; Caption=&quot;&quot; Mandatory=&quot;No&quot; /&gt;[CRLF] &lt;StandardAttribute Name=&quot;Force top align&quot; Attribute=&quot;TextStyle&quot; Prefix=&quot;&quot; Suffix=&quot;&quot; Alignment=&quot;CNTR&quot; Caption=&quot;&quot; Mandatory=&quot;Yes&quot; /&gt;[CRLF]&lt;/Form&gt;
FileDocument.IconPicture=Yes
FileDocument.Stereotype=Yes
FileDocument.Comment=No
FileDocument.TextStyle=No
FileDocument.IconMode=Yes
FileDocument_SymbolLayout=&lt;Form&gt;[CRLF] &lt;StandardAttribute Name=&quot;Icon&quot; Attribute=&quot;IconPicture&quot; Prefix=&quot;&quot; Suffix=&quot;&quot; Alignment=&quot;CNTR&quot; Caption=&quot;&quot; Mandatory=&quot;Yes&quot; /&gt;[CRLF] &lt;StandardAttribute Name=&quot;Stereotype&quot; Attribute=&quot;Stereotype&quot; Prefix=&quot;&amp;lt;&amp;lt;&quot; Suffix=&quot;&amp;gt;&amp;gt;&quot; Alignment=&quot;CNTR&quot; Caption=&quot;&quot; Mandatory=&quot;No&quot; /&gt;[CRLF] &lt;StandardAttribute Name=&quot;Name&quot; Attribute=&quot;DisplayName&quot; Prefix=&quot;&quot; Suffix=&quot;&quot; Alignment=&quot;CNTR&quot; Caption=&quot;&quot; Mandatory=&quot;Yes&quot; /&gt;[CRLF] &lt;Separator Name=&quot;Separator&quot; /&gt;[CRLF] &lt;StandardAttribute Name=&quot;Comment&quot; Attribute=&quot;Comment&quot; Prefix=&quot;&quot; Suffix=&quot;&quot; Alignment=&quot;LEFT&quot; Caption=&quot;&quot; Mandatory=&quot;No&quot; /&gt;[CRLF] &lt;StandardAttribute Name=&quot;Force top align&quot; Attribute=&quot;TextStyle&quot; Prefix=&quot;&quot; Suffix=&quot;&quot; Alignment=&quot;CNTR&quot; Caption=&quot;&quot; Mandatory=&quot;Yes&quot; /&gt;[CRLF]&lt;/Form&gt;
DependencyLink.Stereotype=Yes
DependencyLink.Type=Yes
DependencyLink_SymbolLayout=&lt;Form&gt;[CRLF] &lt;Form Name=&quot;Center&quot; &gt;[CRLF]  &lt;StandardAttribute Name=&quot;Stereotype&quot; Attribute=&quot;Stereotype&quot; Prefix=&quot;&amp;lt;&amp;lt;&quot; Suffix=&quot;&amp;gt;&amp;gt;&quot; Caption=&quot;&quot; Mandatory=&quot;No&quot; /&gt;[CRLF]  &lt;StandardAttribute Name=&quot;Type&quot; Attribute=&quot;Type&quot; Prefix=&quot;&quot; Suffix=&quot;&quot; Caption=&quot;&quot; Mandatory=&quot;No&quot; /&gt;[CRLF] &lt;/Form&gt;[CRLF] &lt;Form Name=&quot;Source&quot; &gt;[CRLF] &lt;/Form&gt;[CRLF] &lt;Form Name=&quot;Destination&quot; &gt;[CRLF] &lt;/Form&gt;[CRLF]&lt;/Form&gt;

[DisplayPreferences\Symbol]

[DisplayPreferences\Symbol\FRMEOBJ]
STRNFont=Arial,8,N
STRNFont color=0, 0, 0
DISPNAMEFont=Arial,8,N
DISPNAMEFont color=0, 0, 0
LABLFont=Arial,8,N
LABLFont color=0, 0, 0
AutoAdjustToText=Yes
Keep aspect=No
Keep center=No
Keep size=No
Width=6000
Height=2000
Brush color=255 255 255
Fill Color=Yes
Brush style=6
Brush bitmap mode=12
Brush gradient mode=64
Brush gradient color=192 192 192
Brush background image=
Custom shape=
Custom text mode=0
Pen=1 0 255 128 128
Shadow color=192 192 192
Shadow=0

[DisplayPreferences\Symbol\FRMELNK]
CENTERFont=Arial,8,N
CENTERFont color=0, 0, 0
Line style=1
AutoAdjustToText=Yes
Keep aspect=No
Keep center=No
Keep size=No
Brush color=255 255 255
Fill Color=Yes
Brush style=1
Brush bitmap mode=12
Brush gradient mode=0
Brush gradient color=118 118 118
Brush background image=
Custom shape=
Custom text mode=0
Pen=1 0 128 128 255
Shadow color=192 192 192
Shadow=0

[DisplayPreferences\Symbol\FILO]
OBJSTRNFont=Arial,8,N
OBJSTRNFont color=0, 0, 0
DISPNAMEFont=Arial,8,N
DISPNAMEFont color=0, 0, 0
LCNMFont=Arial,8,N
LCNMFont color=0, 0, 0
AutoAdjustToText=Yes
Keep aspect=No
Keep center=No
Keep size=No
Width=4800
Height=3600
Brush color=255 255 255
Fill Color=Yes
Brush style=1
Brush bitmap mode=12
Brush gradient mode=0
Brush gradient color=118 118 118
Brush background image=
Custom shape=
Custom text mode=0
Pen=1 0 0 0 255
Shadow color=192 192 192
Shadow=0

[DisplayPreferences\Symbol\PRJPCKG]
STRNFont=Arial,8,N
STRNFont color=0, 0, 0
DISPNAMEFont=Arial,8,N
DISPNAMEFont color=0, 0, 0
LABLFont=Arial,8,N
LABLFont color=0, 0, 0
AutoAdjustToText=Yes
Keep aspect=No
Keep center=No
Keep size=No
Width=4800
Height=4000
Brush color=255 255 192
Fill Color=Yes
Brush style=6
Brush bitmap mode=12
Brush gradient mode=65
Brush gradient color=255 255 255
Brush background image=
Custom shape=
Custom text mode=0
Pen=1 0 178 178 178
Shadow color=192 192 192
Shadow=0

[DisplayPreferences\Symbol\PRJMDOC]
OBJSTRNFont=Arial,8,N
OBJSTRNFont color=0, 0, 0
DISPNAMEFont=Arial,8,N
DISPNAMEFont color=0, 0, 0
LABLFont=Arial,8,N
LABLFont color=0, 0, 0
AutoAdjustToText=Yes
Keep aspect=No
Keep center=No
Keep size=No
Width=2400
Height=2400
Brush color=174 208 250
Fill Color=Yes
Brush style=6
Brush bitmap mode=12
Brush gradient mode=65
Brush gradient color=255 255 255
Brush background image=
Custom shape=
Custom text mode=0
Pen=1 0 147 162 183
Shadow color=192 192 192
Shadow=0

[DisplayPreferences\Symbol\PRJFDOC]
OBJSTRNFont=Arial,8,N
OBJSTRNFont color=0, 0, 0
DISPNAMEFont=Arial,8,N
DISPNAMEFont color=0, 0, 0
LABLFont=Arial,8,N
LABLFont color=0, 0, 0
AutoAdjustToText=Yes
Keep aspect=No
Keep center=No
Keep size=No
Width=2400
Height=2400
Brush color=174 208 250
Fill Color=Yes
Brush style=6
Brush bitmap mode=12
Brush gradient mode=65
Brush gradient color=255 255 255
Brush background image=
Custom shape=
Custom text mode=0
Pen=1 0 147 162 183
Shadow color=192 192 192
Shadow=0

[DisplayPreferences\Symbol\DPLK]
CENTERFont=Arial,8,N
CENTERFont color=0, 0, 0
Line style=1
AutoAdjustToText=Yes
Keep aspect=No
Keep center=No
Keep size=No
Brush color=255 255 255
Fill Color=Yes
Brush style=1
Brush bitmap mode=12
Brush gradient mode=0
Brush gradient color=118 118 118
Brush background image=
Custom shape=
Custom text mode=0
Pen=1 0 5 54 84
Shadow color=192 192 192
Shadow=0

[DisplayPreferences\Symbol\Free Symbol]
Free TextFont=Arial,8,N
Free TextFont color=0, 0, 0
Line style=0
AutoAdjustToText=Yes
Keep aspect=No
Keep center=No
Keep size=No
Brush color=255 255 255
Fill Color=Yes
Brush style=1
Brush bitmap mode=12
Brush gradient mode=0
Brush gradient color=118 118 118
Brush background image=
Custom shape=
Custom text mode=0
Pen=1 0 0 0 255
Shadow color=192 192 192
Shadow=0</a:DisplayPreferences>
<a:PaperSize>(8268, 11693)</a:PaperSize>
<a:PageMargins>((315,354), (433,354))</a:PageMargins>
<a:PageOrientation>1</a:PageOrientation>
<a:PaperSource>15</a:PaperSource>
</o:ProjectDiagram>
</c:ProjectDiagrams>
<c:DefaultDiagram>
<o:ProjectDiagram Ref="o3"/>
</c:DefaultDiagram>
</o:Project>
</c:Children>
</o:RootObject>

</Model>